{
  "prepare_queue": {
    "installed": [],
    "uninstalled": []
  },
  "config_munge": {
    "files": {}
  },
  "installed_plugins": {
    "cordova-gmv-barcode-scanner": {
      "PACKAGE_NAME": "com.evontech.anhaj"
    },
    "cordova-plugin-file": {
      "PACKAGE_NAME": "com.evontech.anhaj"
    },
    "cordova-plugin-file-transfer": {
      "PACKAGE_NAME": "com.evontech.anhaj"
    },
    "cordova-plugin-splashscreen": {
      "PACKAGE_NAME": "com.evontech.anhaj"
    },
    "cordova-plugin-telerik-imagepicker": {
      "PHOTO_LIBRARY_USAGE_DESCRIPTION": "your usage message",
      "PACKAGE_NAME": "com.evontech.anhaj"
    },
    "cordova-plugin-whitelist": {
      "PACKAGE_NAME": "com.evontech.anhaj"
    }
  },
  "dependent_plugins": {}
}